{"count":50,"totalPages":3,"numsPerPage":20,"currentPage":1,"data":[{"id":4445,"title":"腾讯 ISUX","link":"http://isux.tencent.com/","description":"","link_github":"","tag":null,"image_link":"","sort_order":0,"user_id":1,"catalog_id":623,"topic_id":1,"status_is":"Y","create_time":0},{"id":4446,"title":"腾讯 CDU","link":"http://cdc.tencent.com/","description":"","link_github":"","tag":null,"image_link":"","sort_order":0,"user_id":1,"catalog_id":623,"topic_id":1,"status_is":"Y","create_time":0},{"id":4447,"title":"AlloyTeam","link":"http://www.alloyteam.com/","description":" 腾讯 Web 前端团队","link_github":"","tag":null,"image_link":"","sort_order":0,"user_id":1,"catalog_id":623,"topic_id":1,"status_is":"Y","create_time":0},{"id":4448,"title":"腾讯无线 MXD","link":"http://mxd.tencent.com/","description":"","link_github":"","tag":null,"image_link":"","sort_order":0,"user_id":1,"catalog_id":623,"topic_id":1,"status_is":"Y","create_time":0},{"id":4449,"title":"财付通 TID","link":"http://tid.tenpay.com/","description":"","link_github":"","tag":null,"image_link":"","sort_order":0,"user_id":1,"catalog_id":623,"topic_id":1,"status_is":"Y","create_time":0},{"id":4453,"title":"百度 FEX","link":"http://fex.baidu.com/","description":"代表作 FIS、UEditor、WebUploader、KityMinder","link_github":"https://github.com/fex-team/","tag":"","image_link":"","sort_order":0,"user_id":1,"catalog_id":625,"topic_id":1,"status_is":"Y","create_time":0},{"id":4454,"title":"百度 EFE","link":"http://efe.baidu.com","description":"","link_github":"","tag":null,"image_link":"","sort_order":0,"user_id":1,"catalog_id":625,"topic_id":1,"status_is":"Y","create_time":0},{"id":4455,"title":"百度 UED","link":"http://ued.baidu.com/","description":"","link_github":"","tag":null,"image_link":"","sort_order":0,"user_id":1,"catalog_id":625,"topic_id":1,"status_is":"Y","create_time":0},{"id":4464,"title":"AMFE","link":"https://github.com/amfe/article","description":"","link_github":"","tag":null,"image_link":"","sort_order":0,"user_id":1,"catalog_id":622,"topic_id":1,"status_is":"Y","create_time":0},{"id":4467,"title":"THX","link":"http://thx.github.io/","description":"","link_github":"","tag":null,"image_link":"","sort_order":0,"user_id":1,"catalog_id":0,"topic_id":1,"status_is":"Y","create_time":0},{"id":4468,"title":"IMWeb","link":"http://imweb.io/","description":"","link_github":"","tag":null,"image_link":"","sort_order":0,"user_id":1,"catalog_id":623,"topic_id":1,"status_is":"Y","create_time":0},{"id":4469,"title":"奇舞团","link":"http://www.75team.com/","description":"坚持是最宝贵的，别人的奇舞周刊早已经过百期了","link_github":"","tag":null,"image_link":"","sort_order":0,"user_id":1,"catalog_id":0,"topic_id":1,"status_is":"Y","create_time":0},{"id":4470,"title":"新浪 UED","link":"http://ued.sina.com.cn/","description":"","link_github":"","tag":null,"image_link":"","sort_order":0,"user_id":1,"catalog_id":624,"topic_id":1,"status_is":"Y","create_time":0},{"id":4472,"title":"美团前端","link":"http://fe.meituan.com/","description":"","link_github":"","tag":null,"image_link":"","sort_order":0,"user_id":1,"catalog_id":628,"topic_id":1,"status_is":"Y","create_time":0},{"id":4473,"title":"去哪儿 UED","link":"http://ued.qunar.com/","description":"","link_github":"","tag":null,"image_link":"","sort_order":0,"user_id":1,"catalog_id":630,"topic_id":1,"status_is":"Y","create_time":0},{"id":4474,"title":"MFE","link":"http://ued.qunar.com/mobile/blog/","description":"","link_github":"","tag":null,"image_link":"","sort_order":0,"user_id":1,"catalog_id":630,"topic_id":1,"status_is":"Y","create_time":0},{"id":4475,"title":"携程设计委员会","link":"http://ued.ctrip.com/","description":"","link_github":"","tag":null,"image_link":"","sort_order":0,"user_id":1,"catalog_id":621,"topic_id":1,"status_is":"Y","create_time":0},{"id":4476,"title":"大搜车前端","link":"http://f2e.souche.com/blog/","description":"前端网红 小芋头君 所在的团队，文章质量高，尤其是 Node 方向的","link_github":"","tag":null,"image_link":"","sort_order":0,"user_id":1,"catalog_id":0,"topic_id":1,"status_is":"Y","create_time":0},{"id":4477,"title":"豆瓣前端","link":"https://github.com/douban-f2e","description":"","link_github":"","tag":null,"image_link":"","sort_order":0,"user_id":1,"catalog_id":621,"topic_id":1,"status_is":"Y","create_time":0},{"id":4517,"title":"网易邮箱前端技术中心","link":"http://ntesmailfetc.blog.163.com/","description":"","link_github":"","tag":null,"image_link":"","sort_order":0,"user_id":1,"catalog_id":626,"topic_id":1,"status_is":"Y","create_time":0}]}
