{"count":38,"totalPages":2,"numsPerPage":20,"currentPage":1,"data":[{"id":4482,"title":"Web标准设计","link":"http://book.douban.com/subject/3327829/","description":null,"link_github":null,"tag":null,"image_link":null,"sort_order":0,"user_id":1,"catalog_id":612,"topic_id":7,"status_is":"Y","create_time":0},{"id":4483,"title":"大巧不工 ","link":"http://book.douban.com/subject/4914146/","description":null,"link_github":null,"tag":null,"image_link":null,"sort_order":0,"user_id":1,"catalog_id":612,"topic_id":7,"status_is":"Y","create_time":0},{"id":4484,"title":"高性能网站建设指南","link":"https://book.douban.com/subject/3132277/","description":null,"link_github":null,"tag":null,"image_link":null,"sort_order":0,"user_id":1,"catalog_id":612,"topic_id":7,"status_is":"Y","create_time":0},{"id":4485,"title":"高性能网站建设进阶指南","link":"https://book.douban.com/subject/4719162/","description":null,"link_github":null,"tag":null,"image_link":null,"sort_order":0,"user_id":1,"catalog_id":612,"topic_id":7,"status_is":"Y","create_time":0},{"id":4486,"title":"Web站点优化","link":"https://book.douban.com/subject/4124141/","description":null,"link_github":null,"tag":null,"image_link":null,"sort_order":0,"user_id":1,"catalog_id":612,"topic_id":7,"status_is":"Y","create_time":0},{"id":4487,"title":"JavaScript高级程序设计（第3版）","link":"https://book.douban.com/subject/10546125/","description":"","link_github":null,"tag":null,"image_link":"","sort_order":0,"user_id":1,"catalog_id":612,"topic_id":7,"status_is":"Y","create_time":0},{"id":4489,"title":"JavaScript语言精粹","link":"http://book.douban.com/subject/3590768/","description":null,"link_github":null,"tag":null,"image_link":null,"sort_order":0,"user_id":1,"catalog_id":612,"topic_id":7,"status_is":"Y","create_time":0},{"id":4499,"title":"Node.js专业中文社区","link":"https://cnodejs.org/","description":null,"link_github":null,"tag":null,"image_link":null,"sort_order":0,"user_id":1,"catalog_id":621,"topic_id":7,"status_is":"Y","create_time":0},{"id":4500,"title":"了不起的Node.js","link":"https://book.douban.com/subject/25767596/","description":null,"link_github":null,"tag":null,"image_link":null,"sort_order":0,"user_id":1,"catalog_id":621,"topic_id":7,"status_is":"Y","create_time":0},{"id":4501,"title":"深入浅出Node.js","link":"https://book.douban.com/subject/25768396/","description":null,"link_github":null,"tag":null,"image_link":null,"sort_order":0,"user_id":1,"catalog_id":621,"topic_id":7,"status_is":"Y","create_time":0},{"id":4502,"title":"Node.js入门经典","link":"https://book.douban.com/subject/23780706/","description":null,"link_github":null,"tag":null,"image_link":null,"sort_order":0,"user_id":1,"catalog_id":621,"topic_id":7,"status_is":"Y","create_time":0},{"id":4662,"title":"CSS权威指南 （第3版）","link":"http://book.douban.com/subject/2308234/","description":"","link_github":null,"tag":null,"image_link":"","sort_order":0,"user_id":1,"catalog_id":612,"topic_id":7,"status_is":"Y","create_time":0},{"id":4663,"title":"精通CSS（第2版）","link":"https://book.douban.com/subject/4736167/","description":"","link_github":null,"tag":null,"image_link":"","sort_order":0,"user_id":1,"catalog_id":621,"topic_id":7,"status_is":"Y","create_time":0},{"id":4664,"title":"HTML & CSS设计与构建网站","link":"https://book.douban.com/subject/21338365/","description":"","link_github":null,"tag":null,"image_link":"","sort_order":0,"user_id":1,"catalog_id":612,"topic_id":7,"status_is":"Y","create_time":0},{"id":4665,"title":"JavaScript & jQuery交互式Web前端开发","link":"https://book.douban.com/subject/26433805/","description":"","link_github":"","tag":null,"image_link":"","sort_order":0,"user_id":1,"catalog_id":621,"topic_id":7,"status_is":"Y","create_time":0},{"id":4666,"title":"锋利的jQuery","link":"https://book.douban.com/subject/10792216/","description":"","link_github":null,"tag":null,"image_link":"","sort_order":0,"user_id":1,"catalog_id":612,"topic_id":7,"status_is":"Y","create_time":0},{"id":4667,"title":"高性能JavaScript","link":"https://book.douban.com/subject/5362856/","description":"","link_github":null,"tag":null,"image_link":"","sort_order":0,"user_id":1,"catalog_id":612,"topic_id":7,"status_is":"Y","create_time":0},{"id":4668,"title":"JavaScript DOM编程艺术 （第2版）","link":"https://book.douban.com/subject/6038371/","description":"","link_github":null,"tag":null,"image_link":"","sort_order":0,"user_id":1,"catalog_id":612,"topic_id":7,"status_is":"Y","create_time":0},{"id":4669,"title":"编写可维护的JavaScript","link":"https://book.douban.com/subject/21792530/","description":"","link_github":null,"tag":null,"image_link":"","sort_order":0,"user_id":1,"catalog_id":612,"topic_id":7,"status_is":"Y","create_time":0},{"id":4670,"title":"JAVASCRIPT语言精髓与编程实践","link":"https://book.douban.com/subject/3012828/","description":"","link_github":null,"tag":null,"image_link":"","sort_order":0,"user_id":1,"catalog_id":612,"topic_id":7,"status_is":"Y","create_time":0}]}
