{"count":29,"totalPages":2,"numsPerPage":20,"currentPage":1,"data":[{"id":4361,"title":"北京交通大学","link":"http://mirror.bjtu.edu.cn/cn/","description":"Beijing Jiaotong University free and open source software mirror","link_github":"","tag":"","image_link":"","sort_order":0,"user_id":1,"catalog_id":609,"topic_id":10,"status_is":"Y","create_time":0},{"id":4364,"title":"华中科技大学","link":"http://mirror.hust.edu.cn/","description":"","link_github":"","tag":"","image_link":"","sort_order":0,"user_id":1,"catalog_id":10,"topic_id":10,"status_is":"Y","create_time":0},{"id":4366,"title":"Cloud Hosting - Bitnami","link":"https://bitnami.com/","description":"","link_github":"","tag":"","image_link":"","sort_order":0,"user_id":1,"catalog_id":621,"topic_id":10,"status_is":"Y","create_time":0},{"id":4412,"title":"Linux运维派开源镜像站","link":"http://mirrors.skyshe.cn/","description":"","link_github":"","tag":"","image_link":"","sort_order":0,"user_id":1,"catalog_id":621,"topic_id":10,"status_is":"Y","create_time":0},{"id":4578,"title":"公云PubYun","link":"http://mirrors.pubyun.com/","description":"","link_github":"","tag":"","image_link":"","sort_order":0,"user_id":1,"catalog_id":621,"topic_id":10,"status_is":"Y","create_time":0},{"id":7196,"title":"西北农林科技大学","link":"http://mirrors.nwsuaf.edu.cn/","description":"只做CentOS镜像，当前已用容量估计：140GB","link_github":"","tag":"","image_link":"","sort_order":0,"user_id":1,"catalog_id":0,"topic_id":10,"status_is":"Y","create_time":0},{"id":7116,"title":"开源镜像站 | We-Cloud 维云技术小组 - 东软校园内的云服务平台","link":"http://mirrors.neusoft.edu.cn/","description":"We - 开源镜像站由大连东软信息学院网络中心提供硬件及网络资源支持，We-Cloud维云技术小组负责开发、运行及维护，面向校园网及互联网提供开源镜像服务。","link_github":"","tag":"","image_link":"","sort_order":0,"user_id":1,"catalog_id":0,"topic_id":10,"status_is":"Y","create_time":0},{"id":6851,"title":"中山大学","link":"http://mirror.sysu.edu.cn/","description":"SUN YAT-SEN  University Mirrors","link_github":"","tag":"","image_link":"","sort_order":0,"user_id":1,"catalog_id":0,"topic_id":10,"status_is":"Y","create_time":0},{"id":6819,"title":"常州贝特康姆软件技术有限公司","link":"http://centos.bitcomm.cn/","description":"","link_github":"","tag":"","image_link":"","sort_order":0,"user_id":1,"catalog_id":0,"topic_id":10,"status_is":"Y","create_time":0},{"id":6618,"title":"首都在线科技股份有限公司","link":"http://mirrors.yun-idc.com/","description":"","link_github":"","tag":"","image_link":"","sort_order":0,"user_id":1,"catalog_id":0,"topic_id":10,"status_is":"Y","create_time":0},{"id":6476,"title":"淘宝镜像","link":"https://npm.taobao.org/","description":"","link_github":"","tag":null,"image_link":"","sort_order":0,"user_id":1,"catalog_id":621,"topic_id":10,"status_is":"Y","create_time":0},{"id":6346,"title":"网易开源镜像站","link":"http://mirrors.163.com/","description":"","link_github":"","tag":"","image_link":"","sort_order":0,"user_id":1,"catalog_id":621,"topic_id":10,"status_is":"Y","create_time":0},{"id":6246,"title":"厦门大学信息与网络中心开源软件镜像","link":"http://mirrors.xmu.edu.cn/","description":"","link_github":"","tag":"","image_link":"","sort_order":0,"user_id":1,"catalog_id":0,"topic_id":10,"status_is":"Y","create_time":0},{"id":6228,"title":"天翼云开源软件镜像站_ctyun.cn","link":"http://mirrors.ctyun.cn/","description":"","link_github":"","tag":"","image_link":"","sort_order":0,"user_id":1,"catalog_id":0,"topic_id":10,"status_is":"Y","create_time":0},{"id":6164,"title":"阿里云开源镜像","link":"http://mirrors.aliyun.com/","description":"一个有视角的、个性化商业资讯与交流平台","link_github":"","tag":"","image_link":"","sort_order":0,"user_id":1,"catalog_id":621,"topic_id":10,"status_is":"Y","create_time":0},{"id":6162,"title":"中国科学院","link":"http://www.opencas.org/mirrors/","description":"{{ title }}","link_github":"","tag":"","image_link":"","sort_order":0,"user_id":1,"catalog_id":0,"topic_id":10,"status_is":"Y","create_time":0},{"id":6136,"title":"中国互联网络信息中心","link":"http://mirrors.cnnic.cn/","description":"","link_github":"","tag":"","image_link":"","sort_order":0,"user_id":2,"catalog_id":0,"topic_id":10,"status_is":"Y","create_time":0},{"id":6096,"title":"大连理工大学","link":"http://mirror.dlut.edu.cn/","description":"","link_github":"","tag":"","image_link":"","sort_order":0,"user_id":1,"catalog_id":0,"topic_id":10,"status_is":"Y","create_time":0},{"id":6092,"title":"兰州大学开源社区镜像站","link":"http://mirror.lzu.edu.cn/","description":"兰州大学开源社区镜像站提供主流Linux发行版以及开源、自由软件镜像。","link_github":"","tag":"","image_link":"","sort_order":0,"user_id":1,"catalog_id":0,"topic_id":10,"status_is":"Y","create_time":0},{"id":6079,"title":"北京理工大学开源软件镜像服务","link":"http://mirror.bit.edu.cn/web/","description":"","link_github":"","tag":"","image_link":"","sort_order":0,"user_id":2,"catalog_id":0,"topic_id":10,"status_is":"Y","create_time":0}]}
