{"count":29,"totalPages":2,"numsPerPage":20,"currentPage":1,"data":[{"id":4377,"title":"React Router 中文文档","link":"https://react-guide.github.io/react-router-cn/","description":"","link_github":"","tag":"","image_link":"","sort_order":5,"user_id":1,"catalog_id":621,"topic_id":9,"status_is":"Y","create_time":0},{"id":4495,"title":"HTML特殊字符编码对照表","link":"http://www.jb51.net/onlineread/htmlchar.htm","description":"","link_github":"","tag":null,"image_link":"","sort_order":0,"user_id":1,"catalog_id":621,"topic_id":9,"status_is":"Y","create_time":0},{"id":4505,"title":"CSS 词汇表","link":"http://yisibl.github.io/css-vocabulary/","description":"","link_github":"","tag":null,"image_link":"","sort_order":0,"user_id":1,"catalog_id":621,"topic_id":9,"status_is":"Y","create_time":0},{"id":4509,"title":"Ctrip webkitcss","link":"http://ued.ctrip.com/webkitcss/","description":"","link_github":"","tag":null,"image_link":"","sort_order":0,"user_id":1,"catalog_id":621,"topic_id":9,"status_is":"Y","create_time":0},{"id":4510,"title":"Css3动画手册","link":"http://isux.tencent.com/css3/","description":"","link_github":"","tag":null,"image_link":"","sort_order":0,"user_id":1,"catalog_id":621,"topic_id":9,"status_is":"Y","create_time":0},{"id":4545,"title":"underscore 中文手册","link":"http://www.css88.com/doc/underscore","description":"","link_github":"","tag":null,"image_link":"","sort_order":0,"user_id":1,"catalog_id":621,"topic_id":9,"status_is":"Y","create_time":0},{"id":5947,"title":"缓动函数速查表","link":"http://easings.net/zh-cn","description":"缓动函数允许指定动画在执行时的进度，使其看起来更加真实。现实物体照着一定速率移动，并不是一开始就移动得很快。本页可以在每次你需要时，帮助你找到想要的缓动函数。","link_github":"","tag":null,"image_link":"","sort_order":0,"user_id":1,"catalog_id":621,"topic_id":9,"status_is":"Y","create_time":0},{"id":5940,"title":"CSS3动画参考","link":"http://isux.tencent.com/css3/index.html","description":"这是腾讯团队出品的一个CSS3 动画样式参考手册，同时还配备了一个动画工具。","link_github":"","tag":null,"image_link":"","sort_order":0,"user_id":1,"catalog_id":621,"topic_id":9,"status_is":"Y","create_time":0},{"id":5931,"title":"jQuery API 中文在线手册","link":"http://jquery.cuishifeng.cn/","description":"jQuery API 1.12.0 中文在线版，jQuery API CHM 下载，jQuery API 中文最新版，jQuery 是一个兼容多浏览器的 JavasSript 框架，核心理念是 - write less, do more。jQuery API 中文文档(适用jQuery 1.0 - jQuery 2.0).","link_github":"","tag":null,"image_link":"","sort_order":0,"user_id":1,"catalog_id":621,"topic_id":9,"status_is":"Y","create_time":0},{"id":7124,"title":"gulp 入门指南","link":"https://github.com/nimojs/gulp-book","description":"","link_github":"https://github.com/nimojs/gulp-book","tag":"","image_link":"","sort_order":0,"user_id":1,"catalog_id":621,"topic_id":9,"status_is":"Y","create_time":0},{"id":7123,"title":"NodeJS中文文档","link":"https://0532.gitbooks.io/nodejs/content/","description":"","link_github":"","tag":"","image_link":"","sort_order":0,"user_id":1,"catalog_id":621,"topic_id":9,"status_is":"Y","create_time":0},{"id":7120,"title":"GitBook 简明教程","link":"http://www.chengweiyang.cn/gitbook/index.html","description":"","link_github":"","tag":"","image_link":"","sort_order":0,"user_id":1,"catalog_id":0,"topic_id":9,"status_is":"Y","create_time":0},{"id":7078,"title":"JSDoc","link":"http://www.css88.com/doc/jsdoc/index.html","description":"","link_github":"","tag":"","image_link":"","sort_order":0,"user_id":1,"catalog_id":621,"topic_id":9,"status_is":"Y","create_time":0},{"id":7029,"title":"electron中文教程","link":"https://github.com/electron/electron/tree/master/docs-translations/zh-CN","description":"","link_github":"","tag":"","image_link":"","sort_order":0,"user_id":1,"catalog_id":0,"topic_id":9,"status_is":"Y","create_time":0},{"id":7027,"title":"jQuery1.7手册","link":"http://www.php100.com/manual/jQuery/","description":"","link_github":"","tag":null,"image_link":"","sort_order":0,"user_id":1,"catalog_id":621,"topic_id":9,"status_is":"Y","create_time":0},{"id":7026,"title":"原生JS手册","link":"http://www.php100.com/manual/javascript.html","description":null,"link_github":null,"tag":null,"image_link":null,"sort_order":0,"user_id":1,"catalog_id":0,"topic_id":9,"status_is":"N","create_time":0},{"id":7024,"title":"Node.js 中文API文档","link":"http://www.kancloud.cn/wizardforcel/nodejs-doc","description":"","link_github":"","tag":"","image_link":"","sort_order":0,"user_id":1,"catalog_id":621,"topic_id":9,"status_is":"Y","create_time":0},{"id":7025,"title":"CSS3参考手册","link":"http://www.divcss5.com/css3/","description":"","link_github":"","tag":null,"image_link":"","sort_order":0,"user_id":1,"catalog_id":621,"topic_id":9,"status_is":"Y","create_time":0},{"id":7023,"title":"HTML5/CSS3兼容查询","link":"http://fmbip.com/litmus/","description":"","link_github":"","tag":null,"image_link":"","sort_order":0,"user_id":1,"catalog_id":621,"topic_id":9,"status_is":"Y","create_time":0},{"id":6243,"title":"redux中文文档","link":"http://cn.redux.js.org/index.html","description":"Redux 是 JavaScript 状态容器，提供可预测化的状态管理。","link_github":null,"tag":null,"image_link":"","sort_order":0,"user_id":2,"catalog_id":0,"topic_id":9,"status_is":"Y","create_time":0}]}
