{"count":24,"totalPages":2,"numsPerPage":20,"currentPage":1,"data":[{"id":4423,"title":"JohnnyFive","link":"http://johnny-five.io/","description":"基于 Arduino Firmata 协议的 NodeJs 开发库","link_github":"https://github.com/rwaldron/johnny-five","tag":null,"image_link":"","sort_order":0,"user_id":1,"catalog_id":649,"topic_id":18,"status_is":"Y","create_time":0},{"id":4425,"title":"JerryScript","link":"http://samsung.github.io/jerryscript/","description":"专为 IoT 的轻量级 Javascript 引擎","link_github":"https://github.com/Samsung/jerryscript","tag":null,"image_link":"","sort_order":0,"user_id":1,"catalog_id":649,"topic_id":18,"status_is":"Y","create_time":0},{"id":4471,"title":"contiki","link":"http://www.contiki-os.org/","description":"鲜为人知的物联网系统","link_github":null,"tag":null,"image_link":"","sort_order":0,"user_id":1,"catalog_id":649,"topic_id":18,"status_is":"Y","create_time":0},{"id":4497,"title":"raspberrypi","link":"https://www.raspberrypi.org/","description":"","link_github":"","tag":"","image_link":"","sort_order":0,"user_id":1,"catalog_id":621,"topic_id":18,"status_is":"Y","create_time":0},{"id":4527,"title":"ARM mbed","link":"https://www.mbed.com/en/","description":"","link_github":"","tag":"","image_link":"","sort_order":0,"user_id":1,"catalog_id":649,"topic_id":18,"status_is":"Y","create_time":0},{"id":4603,"title":"marvell","link":"http://www.marvell.com/","description":"","link_github":"","tag":"","image_link":"","sort_order":0,"user_id":1,"catalog_id":649,"topic_id":18,"status_is":"Y","create_time":0},{"id":5846,"title":"Nucleus OS","link":"http://www.mentor.com/embedded-software/nucleus/","description":"构筑基于物联网操作系统的物联网生态环境","link_github":null,"tag":null,"image_link":"","sort_order":0,"user_id":1,"catalog_id":649,"topic_id":18,"status_is":"Y","create_time":0},{"id":7149,"title":"Awesome IoT ","link":"https://github.com/phodal/awesome-iot","description":null,"link_github":null,"tag":null,"image_link":"","sort_order":0,"user_id":1,"catalog_id":0,"topic_id":18,"status_is":"Y","create_time":0},{"id":6962,"title":"Ruff","link":"https://ruff.io/zh-cn/","description":"Ruff 是一个 JavaScript 运行时，专为硬件开发而设计。Ruff 对硬件进行了抽象，使用了基于事件驱动、异步 I/O 的模型，使硬件开发变得轻量而且高效。","link_github":"","tag":null,"image_link":"","sort_order":0,"user_id":1,"catalog_id":649,"topic_id":18,"status_is":"Y","create_time":2016},{"id":6384,"title":"cylonjs","link":"https://cylonjs.com/","description":"提供 36 硬件平台开发支持","link_github":"","tag":null,"image_link":"","sort_order":0,"user_id":1,"catalog_id":662,"topic_id":18,"status_is":"Y","create_time":0},{"id":6383,"title":"IoT 笔记","link":"https://github.com/stbui/IoTNotes","description":null,"link_github":null,"tag":null,"image_link":null,"sort_order":0,"user_id":1,"catalog_id":0,"topic_id":18,"status_is":"Y","create_time":0},{"id":6135,"title":"Tessel","link":"https://tessel.io/","description":"基于 Linux + NodeJs 的硬件开发平台","link_github":"","tag":"","image_link":"","sort_order":0,"user_id":1,"catalog_id":649,"topic_id":18,"status_is":"Y","create_time":0},{"id":6134,"title":"Espruino","link":"http://www.espruino.com/","description":"首个 JavaScript 微处理器","link_github":null,"tag":null,"image_link":"","sort_order":0,"user_id":1,"catalog_id":649,"topic_id":18,"status_is":"Y","create_time":0},{"id":6074,"title":"微信","link":"http://iot.weixin.qq.com/","description":null,"link_github":null,"tag":null,"image_link":"","sort_order":0,"user_id":1,"catalog_id":649,"topic_id":18,"status_is":"Y","create_time":0},{"id":6035,"title":"mbientlab","link":"https://mbientlab.com/","description":"","link_github":"","tag":"","image_link":"","sort_order":0,"user_id":1,"catalog_id":649,"topic_id":18,"status_is":"Y","create_time":0},{"id":7249,"title":"WRTnode","link":"http://cn.wrtnode.com/w/","description":"","link_github":"","tag":"","image_link":"","sort_order":0,"user_id":1,"catalog_id":649,"topic_id":18,"status_is":"Y","create_time":0},{"id":7250,"title":"NodeMCU","link":"http://www.nodemcu.com/index_cn.html","description":"","link_github":"","tag":"","image_link":"","sort_order":0,"user_id":1,"catalog_id":649,"topic_id":18,"status_is":"Y","create_time":0},{"id":7431,"title":"RAYSHOBBY","link":"http://rayshobby.net/","description":null,"link_github":null,"tag":null,"image_link":null,"sort_order":0,"user_id":1,"catalog_id":649,"topic_id":18,"status_is":"Y","create_time":0},{"id":8105,"title":"Damien George","link":"http://dpgeorge.net/","description":null,"link_github":"","tag":"","image_link":"","sort_order":0,"user_id":1,"catalog_id":649,"topic_id":18,"status_is":"Y","create_time":0},{"id":8116,"title":"IoT.js","link":"https://github.com/Samsung/iotjs","description":"三星轻量级面向物联网 JavaScript 框架。基于 JerryScript 引擎","link_github":"","tag":"","image_link":"","sort_order":0,"user_id":1,"catalog_id":662,"topic_id":18,"status_is":"Y","create_time":0}]}
