{"count":29,"totalPages":2,"numsPerPage":20,"currentPage":1,"data":[{"id":4395,"title":"vux","link":"https://vux.li/","description":"","link_github":"https://github.com/airyland/vux","tag":"vue","image_link":"","sort_order":0,"user_id":1,"catalog_id":631,"topic_id":6,"status_is":"Y","create_time":0},{"id":4404,"title":"Ionic","link":"http://ionicframework.com/","description":"","link_github":"","tag":null,"image_link":"","sort_order":0,"user_id":1,"catalog_id":621,"topic_id":6,"status_is":"Y","create_time":0},{"id":4408,"title":"Vue","link":"http://cn.vuejs.org/","description":"Vue.js 是用于构建交互式的 Web  界面的库。它提供了 MVVM 数据绑定和一个可组合的组件系统，具有简单、灵活的 API。从技术上讲， Vue.js 集中在 MVVM 模式上的视图模型层，并通过双向数据绑定连接视图和模型。","link_github":null,"tag":null,"image_link":"","sort_order":0,"user_id":1,"catalog_id":631,"topic_id":6,"status_is":"Y","create_time":0},{"id":4520,"title":"魔法组件库 - 滴滴出行","link":"http://mofang.xiaojukeji.com/","description":"","link_github":"https://github.com/DDFE","tag":"","image_link":"","sort_order":0,"user_id":1,"catalog_id":609,"topic_id":6,"status_is":"Y","create_time":0},{"id":4529,"title":"N3 ","link":"https://n3-components.github.io/N3-components/index.html","description":"","link_github":"https://github.com/N3-components/N3-components","tag":"vue","image_link":"","sort_order":0,"user_id":1,"catalog_id":631,"topic_id":6,"status_is":"Y","create_time":0},{"id":4571,"title":"vue-material","link":"https://vuematerial.github.io","description":"Material design for Vue.js","link_github":"https://github.com/marcosmoura/vue-material","tag":null,"image_link":"","sort_order":0,"user_id":1,"catalog_id":631,"topic_id":6,"status_is":"Y","create_time":0},{"id":4609,"title":"vue-admin","link":"https://github.com/fundon/vue-admin","description":"基于 Vue.js 开发的后台","link_github":"","tag":null,"image_link":"","sort_order":0,"user_id":1,"catalog_id":631,"topic_id":6,"status_is":"Y","create_time":0},{"id":4612,"title":"ant.design","link":"http://ant.design/","description":"蚂蚁金服搞的良心项目，文档美好的令人发指 样式优雅，强烈推荐内部系统尝试此库","link_github":"","tag":"","image_link":"","sort_order":0,"user_id":1,"catalog_id":632,"topic_id":6,"status_is":"Y","create_time":0},{"id":4637,"title":"element","link":"http://element.eleme.io/","description":"Element，一套为开发者、设计师和产品经理准备的基于 Vue 2.0 的组件库，提供了配套设计资源，帮助你的网站快速成型。","link_github":"","tag":"","image_link":"","sort_order":0,"user_id":1,"catalog_id":631,"topic_id":6,"status_is":"Y","create_time":0},{"id":6314,"title":"uxcore","link":"http://uxco.re","description":"","link_github":"https://github.com/uxcore","tag":"react","image_link":"https://avatars1.githubusercontent.com/u/12255016?v=3&s=200","sort_order":0,"user_id":1,"catalog_id":632,"topic_id":6,"status_is":"Y","create_time":0},{"id":7100,"title":"知乎日报 Web 基于 Vue 2.0","link":"https://github.com/iHaPBoy/vue-zhihudaily","description":"知乎日报 Web 版本，基于 Vue 2.0 + Vue-Resource + Vue-Router + Vuex 开发。","link_github":"https://github.com/iHaPBoy/vue-zhihudaily","tag":"vue2.0","image_link":"","sort_order":0,"user_id":1,"catalog_id":631,"topic_id":6,"status_is":"Y","create_time":0},{"id":6980,"title":"Rubik UI","link":"https://ccforward.github.io/rubik/","description":"Rubik UI 是一个基于 Vue.js 2.0+ 的开源 UI 组件库，在交互和视觉设计上遵循 Material Design 规范，适用于 PC 端和 mobile 端。","link_github":"https://github.com/ccforward/rubik","tag":"","image_link":"","sort_order":0,"user_id":1,"catalog_id":0,"topic_id":6,"status_is":"Y","create_time":0},{"id":6903,"title":"Muse UI","link":"https://museui.github.io/","description":"Material Desgin UI library for Vuejs 2.0 ","link_github":"https://github.com/museui/muse-ui","tag":null,"image_link":"","sort_order":0,"user_id":1,"catalog_id":631,"topic_id":6,"status_is":"Y","create_time":0},{"id":6897,"title":"mint-ui","link":"https://github.com/ElemeFE/mint-ui","description":"Mobile UI elements for Vue.js","link_github":"https://github.com/ElemeFE/mint-ui","tag":null,"image_link":"","sort_order":0,"user_id":1,"catalog_id":631,"topic_id":6,"status_is":"Y","create_time":0},{"id":6895,"title":"tinper","link":"http://tinper.org/","description":"tinper，由前端集成开发工具uba、前端UI框架neoui、react组件库bee、表格组件grid、UI数据模型kero、前端基础库sparrow组成， \r\n旨在帮助开发者快速进行应用开发，提高开发效率。","link_github":"https://github.com/iuap-design/kero","tag":"","image_link":"","sort_order":0,"user_id":1,"catalog_id":0,"topic_id":6,"status_is":"Y","create_time":0},{"id":6797,"title":"Vue-Blu","link":"https://chenz24.github.io/vue-blu/#/","description":"Vue-Blu是基于Vuejs和Bulma开发的开源UI组件库。旨在为PC端的前端开发(特别是中后台产品)提供一个快速且灵活的解决方案。","link_github":"","tag":"","image_link":"","sort_order":0,"user_id":1,"catalog_id":631,"topic_id":6,"status_is":"Y","create_time":0},{"id":6364,"title":"VUE-MUI","link":"http://mui.yaobieting.com/","description":"mobile components for Vue.js","link_github":"https://github.com/mennghao/vue-mui","tag":"","image_link":"","sort_order":0,"user_id":1,"catalog_id":0,"topic_id":6,"status_is":"Y","create_time":0},{"id":6344,"title":"vue-wechat","link":"https://github.com/useryangtao/vue-wechat","description":"","link_github":null,"tag":null,"image_link":"","sort_order":0,"user_id":2,"catalog_id":631,"topic_id":6,"status_is":"Y","create_time":0},{"id":6323,"title":"Ionic Framework 中文社区","link":"http://ionichina.com/","description":"","link_github":null,"tag":null,"image_link":"","sort_order":0,"user_id":2,"catalog_id":621,"topic_id":6,"status_is":"Y","create_time":0},{"id":6211,"title":"Vue.js","link":"http://vuejs.org.cn/","description":"数据驱动的组件，为现代化的 Web 界面而生","link_github":null,"tag":null,"image_link":"","sort_order":0,"user_id":2,"catalog_id":631,"topic_id":6,"status_is":"Y","create_time":0}]}
