{"count":37,"totalPages":2,"numsPerPage":20,"currentPage":1,"data":[{"id":4387,"title":"avalon","link":"http://avalonjs.coding.me/","description":"","link_github":null,"tag":null,"image_link":null,"sort_order":0,"user_id":1,"catalog_id":608,"topic_id":5,"status_is":"Y","create_time":2016},{"id":4407,"title":"geo8bit/nodebob: nodebob is a build tool for node-webkit.","link":"https://github.com/geo8bit/nodebob","description":"nodebob is a build tool for node-webkit.","link_github":"https://github.com/geo8bit/nodebob","tag":"","image_link":"","sort_order":0,"user_id":1,"catalog_id":608,"topic_id":5,"status_is":"Y","create_time":2016},{"id":4525,"title":"vonic","link":"https://wangdahoo.github.io/vonic/docs/","description":"Mobile UI Components, based on Vue.js and ionic CSS","link_github":"https://github.com/wangdahoo/vonic","tag":null,"image_link":null,"sort_order":0,"user_id":1,"catalog_id":0,"topic_id":5,"status_is":"Y","create_time":0},{"id":4570,"title":"qqmusic-redux","link":"https://github.com/JoV5/qqmusic-redux","description":"QQMusic API client with React / Redux / react-router / immutable-js and rxjs","link_github":null,"tag":null,"image_link":"","sort_order":0,"user_id":1,"catalog_id":0,"topic_id":5,"status_is":"Y","create_time":0},{"id":4606,"title":"fullPage","link":"http://alvarotrigo.com/fullPage/","description":"非常好用的全屏滑动库，看 Demo 就明白","link_github":null,"tag":null,"image_link":"","sort_order":0,"user_id":1,"catalog_id":608,"topic_id":5,"status_is":"Y","create_time":0},{"id":6872,"title":"仿饿了么app","link":"https://github.com/liangxiaojuan/eleme","description":"vue2.0 仿饿了么app","link_github":"https://github.com/liangxiaojuan/eleme","tag":"","image_link":"","sort_order":0,"user_id":1,"catalog_id":0,"topic_id":5,"status_is":"Y","create_time":0},{"id":6805,"title":"SMValidator","link":"https://github.com/WLDragon/SMValidator","description":"最好用的表单验证库","link_github":null,"tag":null,"image_link":"","sort_order":0,"user_id":1,"catalog_id":0,"topic_id":5,"status_is":"Y","create_time":0},{"id":6234,"title":"hterm","link":"https://github.com/macton/hterm","description":null,"link_github":"https://github.com/macton/hterm","tag":null,"image_link":"","sort_order":0,"user_id":1,"catalog_id":0,"topic_id":5,"status_is":"N","create_time":0},{"id":6159,"title":"multi-picker","link":"https://github.com/AppianZ/multi-picker","description":"『为移动端而生』的自定义多级联动选择器，可处理各种类型的多级联动，例如城市联动，时间联动。","link_github":"https://github.com/AppianZ/multi-picker","tag":null,"image_link":"","sort_order":0,"user_id":1,"catalog_id":0,"topic_id":5,"status_is":"Y","create_time":0},{"id":6124,"title":"vue-music音乐播放器","link":"https://github.com/gaoxiaosong1113/vue-music","description":null,"link_github":"https://github.com/gaoxiaosong1113/vue-music","tag":"","image_link":"","sort_order":0,"user_id":1,"catalog_id":0,"topic_id":5,"status_is":"Y","create_time":0},{"id":6077,"title":"term","link":"https://github.com/chjj/term.js","description":"","link_github":"","tag":"","image_link":"","sort_order":0,"user_id":1,"catalog_id":0,"topic_id":5,"status_is":"Y","create_time":0},{"id":7482,"title":"哔哩哔哩","link":"https://github.com/youhonglian/vue-bilibili","description":"Vue.js仿哔哩哔哩动画移动端","link_github":"https://github.com/youhonglian/vue-bilibili","tag":null,"image_link":null,"sort_order":0,"user_id":1,"catalog_id":0,"topic_id":5,"status_is":"Y","create_time":0},{"id":7638,"title":"猫眼电影","link":"https://github.com/zhixuanziben/gouyan-movie-vue","description":"这是一个基于vue全家桶制作的在线电影影讯网站，利用豆瓣api的接口获取数据，模仿猫眼电影制作的webapp，实现了当前热映电影，即将上映电影，电影详细信息，短评和长评论信息，影星个人信息，以及电影查询的功能","link_github":"https://github.com/zhixuanziben/gouyan-movie-vue","tag":null,"image_link":null,"sort_order":0,"user_id":1,"catalog_id":0,"topic_id":5,"status_is":"Y","create_time":0},{"id":7679,"title":"regularjs","link":"https://regularjs.github.io/guide/zh/","description":"","link_github":"https://github.com/regularjs/regular","tag":"","image_link":"","sort_order":0,"user_id":1,"catalog_id":621,"topic_id":5,"status_is":"Y","create_time":0},{"id":7739,"title":"RegularJS的前端组件库","link":"http://regular-ui.github.io/","description":"","link_github":"https://github.com/regular-ui/regular-ui","tag":"","image_link":"","sort_order":0,"user_id":1,"catalog_id":0,"topic_id":5,"status_is":"Y","create_time":0},{"id":8364,"title":"豆瓣电影（版本1）","link":"https://github.com/superman66/vue2.x-douban","description":"Vue2.0实现简易豆瓣电影webApp","link_github":"https://github.com/superman66/vue2.x-douban","tag":null,"image_link":null,"sort_order":0,"user_id":1,"catalog_id":0,"topic_id":5,"status_is":"Y","create_time":0},{"id":8367,"title":"豆瓣电影（版本2）","link":"https://github.com/buptsky/vue-douban-movie/","description":"基于vue.js的豆瓣电影webapp","link_github":"https://github.com/buptsky/vue-douban-movie/","tag":null,"image_link":null,"sort_order":0,"user_id":1,"catalog_id":0,"topic_id":5,"status_is":"Y","create_time":0},{"id":8433,"title":"滴滴出行","link":"https://github.com/uncleze2017/Imitation-DIDI-project","description":"Vue2.0 仿滴滴出行项目","link_github":"https://github.com/uncleze2017/Imitation-DIDI-project","tag":null,"image_link":null,"sort_order":0,"user_id":1,"catalog_id":0,"topic_id":5,"status_is":"Y","create_time":0},{"id":8445,"title":"高仿微信","link":"https://github.com/zhaohaodang/vue-WeChat","description":"一款基于Vue2.0高仿微信App的单页应用","link_github":"https://github.com/zhaohaodang/vue-WeChat","tag":null,"image_link":null,"sort_order":0,"user_id":1,"catalog_id":0,"topic_id":5,"status_is":"Y","create_time":0},{"id":8512,"title":"新浪微博","link":"https://github.com/JuniorTour/vue-weibo","description":"一个用Vue.js及相关插件模仿制作微博网页版（m.weibo.cn）的项目。","link_github":"https://github.com/JuniorTour/vue-weibo","tag":"","image_link":"","sort_order":0,"user_id":1,"catalog_id":0,"topic_id":5,"status_is":"Y","create_time":0}]}
