{
    "count": 1016,
    "totalPages": 51,
    "numsPerPage": 20,
    "currentPage": 1,
    "data": [
        {
            "id": 1980,
            "name": "pef",
            "url": "http://127.0.0.1:4200/collection",
            "pageloadtime": 1515225219072,
            "total_time": 1515230000000,
            "ttfb": 49,
            "connect": 0,
            "dom": 1515225219072,
            "request": 42,
            "response": 10,
            "domReady": 0,
            "load": 1515225219072,
            "tcp": 0,
            "dns": 0,
            "black_waiting_time": 49,
            "fist_page_time": 49,
            "operation_time": 0,
            "last_unload": 0,
            "redirect": 0,
            "cb": "1515225203256",
            "ct": "img",
            "apiKey": "qetBqF9Ja3v2oU8BRRzoLlWaKj0cFiN9"
        },
        {
            "id": 1979,
            "name": "pef",
            "url": "http://127.0.0.1:4200/collection",
            "pageloadtime": 1515225219072,
            "total_time": 1515230000000,
            "ttfb": 47,
            "connect": 0,
            "dom": 1515225219072,
            "request": 42,
            "response": 8,
            "domReady": 0,
            "load": 1515225219072,
            "tcp": 0,
            "dns": 0,
            "black_waiting_time": 47,
            "fist_page_time": 47,
            "operation_time": 0,
            "last_unload": 1,
            "redirect": 0,
            "cb": "1515225189775",
            "ct": "img",
            "apiKey": "qetBqF9Ja3v2oU8BRRzoLlWaKj0cFiN9"
        },
        {
            "id": 1978,
            "name": "pef",
            "url": "http://127.0.0.1:4200/script",
            "pageloadtime": 1515225088000,
            "total_time": 1515230000000,
            "ttfb": 43,
            "connect": 0,
            "dom": 1515225088000,
            "request": 37,
            "response": 8,
            "domReady": 0,
            "load": 1515225088000,
            "tcp": 0,
            "dns": 0,
            "black_waiting_time": 43,
            "fist_page_time": 43,
            "operation_time": 0,
            "last_unload": 0,
            "redirect": 0,
            "cb": "1515225112980",
            "ct": "img",
            "apiKey": "qetBqF9Ja3v2oU8BRRzoLlWaKj0cFiN9"
        },
        {
            "id": 1977,
            "name": "pef",
            "url": "http://127.0.0.1:4200/manage",
            "pageloadtime": 1515225088000,
            "total_time": 1515230000000,
            "ttfb": 40,
            "connect": 0,
            "dom": 1515225088000,
            "request": 35,
            "response": 15,
            "domReady": 0,
            "load": 1515225088000,
            "tcp": 0,
            "dns": 0,
            "black_waiting_time": 40,
            "fist_page_time": 40,
            "operation_time": 0,
            "last_unload": 0,
            "redirect": 0,
            "cb": "1515225095631",
            "ct": "img",
            "apiKey": "qetBqF9Ja3v2oU8BRRzoLlWaKj0cFiN9"
        },
        {
            "id": 1976,
            "name": "pef",
            "url": "http://127.0.0.1:4200/manage",
            "pageloadtime": 1515225088000,
            "total_time": 1515230000000,
            "ttfb": 54,
            "connect": 1,
            "dom": 1515225088000,
            "request": 48,
            "response": 8,
            "domReady": 0,
            "load": 1515225088000,
            "tcp": 1,
            "dns": 0,
            "black_waiting_time": 54,
            "fist_page_time": 54,
            "operation_time": 0,
            "last_unload": 1,
            "redirect": 0,
            "cb": "1515225077579",
            "ct": "img",
            "apiKey": "qetBqF9Ja3v2oU8BRRzoLlWaKj0cFiN9"
        },
        {
            "id": 1975,
            "name": "pef",
            "url": "http://127.0.0.1:4200/collection",
            "pageloadtime": 1515224956928,
            "total_time": 1515220000000,
            "ttfb": 7,
            "connect": 0,
            "dom": 1515224956928,
            "request": 2,
            "response": 4,
            "domReady": 0,
            "load": 1515224956928,
            "tcp": 0,
            "dns": 0,
            "black_waiting_time": 7,
            "fist_page_time": 7,
            "operation_time": 0,
            "last_unload": 1,
            "redirect": 0,
            "cb": "1515224996768",
            "ct": "img",
            "apiKey": "qetBqF9Ja3v2oU8BRRzoLlWaKj0cFiN9"
        },
        {
            "id": 1974,
            "name": "pef",
            "url": "http://127.0.0.1:4200/collection",
            "pageloadtime": 1515224825856,
            "total_time": 1515220000000,
            "ttfb": 10,
            "connect": 0,
            "dom": 1515224825856,
            "request": 2,
            "response": 12,
            "domReady": 0,
            "load": 1515224825856,
            "tcp": 0,
            "dns": 0,
            "black_waiting_time": 10,
            "fist_page_time": 10,
            "operation_time": 0,
            "last_unload": 0,
            "redirect": 0,
            "cb": "1515224875254",
            "ct": "img",
            "apiKey": "qetBqF9Ja3v2oU8BRRzoLlWaKj0cFiN9"
        },
        {
            "id": 1973,
            "name": "pef",
            "url": "http://127.0.0.1:4200/collection",
            "pageloadtime": 1515224694784,
            "total_time": 1515220000000,
            "ttfb": 40,
            "connect": 0,
            "dom": 1515224694784,
            "request": 34,
            "response": 7,
            "domReady": 0,
            "load": 1515224694784,
            "tcp": 0,
            "dns": 0,
            "black_waiting_time": 40,
            "fist_page_time": 40,
            "operation_time": 0,
            "last_unload": 1,
            "redirect": 0,
            "cb": "1515224653310",
            "ct": "img",
            "apiKey": "qetBqF9Ja3v2oU8BRRzoLlWaKj0cFiN9"
        },
        {
            "id": 1972,
            "name": "pef",
            "url": "http://127.0.0.1:4200/collection",
            "pageloadtime": 1515224694784,
            "total_time": 1515220000000,
            "ttfb": 48,
            "connect": 0,
            "dom": 1515224694784,
            "request": 43,
            "response": 7,
            "domReady": 0,
            "load": 1515224694784,
            "tcp": 0,
            "dns": 0,
            "black_waiting_time": 48,
            "fist_page_time": 48,
            "operation_time": 0,
            "last_unload": 0,
            "redirect": 0,
            "cb": "1515224644439",
            "ct": "img",
            "apiKey": "qetBqF9Ja3v2oU8BRRzoLlWaKj0cFiN9"
        },
        {
            "id": 1971,
            "name": "pef",
            "url": "http://127.0.0.1:4200/collection",
            "pageloadtime": 1515224694784,
            "total_time": 1515220000000,
            "ttfb": 42,
            "connect": 0,
            "dom": 1515224694784,
            "request": 36,
            "response": 9,
            "domReady": 0,
            "load": 1515224694784,
            "tcp": 0,
            "dns": 0,
            "black_waiting_time": 42,
            "fist_page_time": 42,
            "operation_time": 0,
            "last_unload": 1,
            "redirect": 0,
            "cb": "1515224636553",
            "ct": "img",
            "apiKey": "qetBqF9Ja3v2oU8BRRzoLlWaKj0cFiN9"
        },
        {
            "id": 1970,
            "name": "pef",
            "url": "http://127.0.0.1:4200/collection",
            "pageloadtime": 1515224563712,
            "total_time": 1515220000000,
            "ttfb": 43,
            "connect": 0,
            "dom": 1515224563712,
            "request": 37,
            "response": 8,
            "domReady": 0,
            "load": 1515224563712,
            "tcp": 0,
            "dns": 0,
            "black_waiting_time": 43,
            "fist_page_time": 43,
            "operation_time": 0,
            "last_unload": 0,
            "redirect": 0,
            "cb": "1515224624343",
            "ct": "img",
            "apiKey": "qetBqF9Ja3v2oU8BRRzoLlWaKj0cFiN9"
        },
        {
            "id": 1969,
            "name": "pef",
            "url": "http://127.0.0.1:4200/collection",
            "pageloadtime": 1515224563712,
            "total_time": 1515220000000,
            "ttfb": 48,
            "connect": 0,
            "dom": 1515224563712,
            "request": 42,
            "response": 8,
            "domReady": 0,
            "load": 1515224563712,
            "tcp": 0,
            "dns": 0,
            "black_waiting_time": 48,
            "fist_page_time": 48,
            "operation_time": 0,
            "last_unload": 0,
            "redirect": 0,
            "cb": "1515224619707",
            "ct": "img",
            "apiKey": "qetBqF9Ja3v2oU8BRRzoLlWaKj0cFiN9"
        },
        {
            "id": 1968,
            "name": "pef",
            "url": "http://127.0.0.1:4200/collection",
            "pageloadtime": 1515224563712,
            "total_time": 1515220000000,
            "ttfb": 48,
            "connect": 0,
            "dom": 1515224563712,
            "request": 42,
            "response": 7,
            "domReady": 0,
            "load": 1515224563712,
            "tcp": 0,
            "dns": 0,
            "black_waiting_time": 48,
            "fist_page_time": 48,
            "operation_time": 0,
            "last_unload": 0,
            "redirect": 0,
            "cb": "1515224615453",
            "ct": "img",
            "apiKey": "qetBqF9Ja3v2oU8BRRzoLlWaKj0cFiN9"
        },
        {
            "id": 1967,
            "name": "pef",
            "url": "http://127.0.0.1:4200/collection",
            "pageloadtime": 1515224563712,
            "total_time": 1515220000000,
            "ttfb": 48,
            "connect": 0,
            "dom": 1515224563712,
            "request": 43,
            "response": 10,
            "domReady": 0,
            "load": 1515224563712,
            "tcp": 0,
            "dns": 0,
            "black_waiting_time": 48,
            "fist_page_time": 48,
            "operation_time": 0,
            "last_unload": 0,
            "redirect": 0,
            "cb": "1515224610256",
            "ct": "img",
            "apiKey": "qetBqF9Ja3v2oU8BRRzoLlWaKj0cFiN9"
        },
        {
            "id": 1966,
            "name": "pef",
            "url": "http://127.0.0.1:4200/collection",
            "pageloadtime": 1515224563712,
            "total_time": 1515220000000,
            "ttfb": 37,
            "connect": 0,
            "dom": 1515224563712,
            "request": 31,
            "response": 8,
            "domReady": 0,
            "load": 1515224563712,
            "tcp": 0,
            "dns": 0,
            "black_waiting_time": 37,
            "fist_page_time": 37,
            "operation_time": 0,
            "last_unload": 0,
            "redirect": 0,
            "cb": "1515224592859",
            "ct": "img",
            "apiKey": "qetBqF9Ja3v2oU8BRRzoLlWaKj0cFiN9"
        },
        {
            "id": 1965,
            "name": "pef",
            "url": "http://127.0.0.1:4200/collection",
            "pageloadtime": 1515224563712,
            "total_time": 1515220000000,
            "ttfb": 52,
            "connect": 0,
            "dom": 1515224563712,
            "request": 46,
            "response": 8,
            "domReady": 0,
            "load": 1515224563712,
            "tcp": 0,
            "dns": 0,
            "black_waiting_time": 52,
            "fist_page_time": 52,
            "operation_time": 0,
            "last_unload": 0,
            "redirect": 0,
            "cb": "1515224588148",
            "ct": "img",
            "apiKey": "qetBqF9Ja3v2oU8BRRzoLlWaKj0cFiN9"
        },
        {
            "id": 1964,
            "name": "pef",
            "url": "http://127.0.0.1:4200/collection",
            "pageloadtime": 1515224563712,
            "total_time": 1515220000000,
            "ttfb": 44,
            "connect": 0,
            "dom": 1515224563712,
            "request": 38,
            "response": 7,
            "domReady": 0,
            "load": 1515224563712,
            "tcp": 0,
            "dns": 0,
            "black_waiting_time": 44,
            "fist_page_time": 44,
            "operation_time": 0,
            "last_unload": 0,
            "redirect": 0,
            "cb": "1515224573174",
            "ct": "img",
            "apiKey": "qetBqF9Ja3v2oU8BRRzoLlWaKj0cFiN9"
        },
        {
            "id": 1963,
            "name": "pef",
            "url": "http://127.0.0.1:4200/collection",
            "pageloadtime": 1515224563712,
            "total_time": 1515220000000,
            "ttfb": 48,
            "connect": 0,
            "dom": 1515224563712,
            "request": 42,
            "response": 7,
            "domReady": 0,
            "load": 1515224563712,
            "tcp": 0,
            "dns": 0,
            "black_waiting_time": 48,
            "fist_page_time": 48,
            "operation_time": 0,
            "last_unload": 0,
            "redirect": 0,
            "cb": "1515224564827",
            "ct": "img",
            "apiKey": "qetBqF9Ja3v2oU8BRRzoLlWaKj0cFiN9"
        },
        {
            "id": 1962,
            "name": "pef",
            "url": "http://127.0.0.1:4200/collection",
            "pageloadtime": 1515224563712,
            "total_time": 1515220000000,
            "ttfb": 49,
            "connect": 0,
            "dom": 1515224563712,
            "request": 42,
            "response": 7,
            "domReady": 0,
            "load": 1515224563712,
            "tcp": 0,
            "dns": 0,
            "black_waiting_time": 49,
            "fist_page_time": 49,
            "operation_time": 0,
            "last_unload": 0,
            "redirect": 0,
            "cb": "1515224558661",
            "ct": "img",
            "apiKey": "qetBqF9Ja3v2oU8BRRzoLlWaKj0cFiN9"
        },
        {
            "id": 1961,
            "name": "pef",
            "url": "http://127.0.0.1:4200/collection",
            "pageloadtime": 1515224563712,
            "total_time": 1515220000000,
            "ttfb": 217,
            "connect": 0,
            "dom": 1515224563712,
            "request": 211,
            "response": 9,
            "domReady": 0,
            "load": 1515224563712,
            "tcp": 0,
            "dns": 0,
            "black_waiting_time": 217,
            "fist_page_time": 217,
            "operation_time": 0,
            "last_unload": 0,
            "redirect": 0,
            "cb": "1515224554160",
            "ct": "img",
            "apiKey": "qetBqF9Ja3v2oU8BRRzoLlWaKj0cFiN9"
        }
    ]
}