{
    "count": 1186,
    "totalPages": 60,
    "numsPerPage": 20,
    "currentPage": 1,
    "data": [
        {
            "id": 1244,
            "name": "ajax",
            "domain": "127.0.0.1:4200",
            "type": "xhr",
            "method": "GET",
            "url": "http://127.0.0.1:3000/collections.json",
            "apiKey": "qetBqF9Ja3v2oU8BRRzoLlWaKj0cFiN9"
        },
        {
            "id": 1243,
            "name": "ajax",
            "domain": "127.0.0.1:4200",
            "type": "xhr",
            "method": "GET",
            "url": "http://127.0.0.1:4200/sockjs-node/info?t=1515221380503",
            "apiKey": "qetBqF9Ja3v2oU8BRRzoLlWaKj0cFiN9"
        },
        {
            "id": 1242,
            "name": "ajax",
            "domain": "127.0.0.1:4200",
            "type": "xhr",
            "method": "GET",
            "url": "http://127.0.0.1:4200/sockjs-node/info?t=1515221374017",
            "apiKey": "qetBqF9Ja3v2oU8BRRzoLlWaKj0cFiN9"
        },
        {
            "id": 1241,
            "name": "ajax",
            "domain": "127.0.0.1:4200",
            "type": "xhr",
            "method": "GET",
            "url": "http://127.0.0.1:4200/sockjs-node/info?t=1515221361784",
            "apiKey": "qetBqF9Ja3v2oU8BRRzoLlWaKj0cFiN9"
        },
        {
            "id": 1240,
            "name": "ajax",
            "domain": "127.0.0.1:4200",
            "type": "xhr",
            "method": "GET",
            "url": "http://127.0.0.1:4200/sockjs-node/info?t=1515221350953",
            "apiKey": "qetBqF9Ja3v2oU8BRRzoLlWaKj0cFiN9"
        },
        {
            "id": 1239,
            "name": "ajax",
            "domain": "127.0.0.1:4200",
            "type": "xhr",
            "method": "GET",
            "url": "http://127.0.0.1:4200/sockjs-node/info?t=1515221318945",
            "apiKey": "qetBqF9Ja3v2oU8BRRzoLlWaKj0cFiN9"
        },
        {
            "id": 1238,
            "name": "ajax",
            "domain": "127.0.0.1:4200",
            "type": "xhr",
            "method": "GET",
            "url": "http://127.0.0.1:4200/sockjs-node/info?t=1515221315150",
            "apiKey": "qetBqF9Ja3v2oU8BRRzoLlWaKj0cFiN9"
        },
        {
            "id": 1237,
            "name": "ajax",
            "domain": "127.0.0.1:4200",
            "type": "xhr",
            "method": "GET",
            "url": "http://127.0.0.1:4200/sockjs-node/info?t=1515221304352",
            "apiKey": "qetBqF9Ja3v2oU8BRRzoLlWaKj0cFiN9"
        },
        {
            "id": 1236,
            "name": "ajax",
            "domain": "127.0.0.1:4200",
            "type": "xhr",
            "method": "GET",
            "url": "http://127.0.0.1:4200/sockjs-node/info?t=1515221298764",
            "apiKey": "qetBqF9Ja3v2oU8BRRzoLlWaKj0cFiN9"
        },
        {
            "id": 1235,
            "name": "ajax",
            "domain": "127.0.0.1:4200",
            "type": "xhr",
            "method": "GET",
            "url": "http://127.0.0.1:4200/sockjs-node/info?t=1515221276599",
            "apiKey": "qetBqF9Ja3v2oU8BRRzoLlWaKj0cFiN9"
        },
        {
            "id": 1234,
            "name": "ajax",
            "domain": "127.0.0.1:4200",
            "type": "xhr",
            "method": "GET",
            "url": "http://127.0.0.1:4200/sockjs-node/info?t=1515221270911",
            "apiKey": "qetBqF9Ja3v2oU8BRRzoLlWaKj0cFiN9"
        },
        {
            "id": 1233,
            "name": "ajax",
            "domain": "127.0.0.1:4200",
            "type": "xhr",
            "method": "GET",
            "url": "http://127.0.0.1:4200/sockjs-node/info?t=1515221267222",
            "apiKey": "qetBqF9Ja3v2oU8BRRzoLlWaKj0cFiN9"
        },
        {
            "id": 1232,
            "name": "ajax",
            "domain": "127.0.0.1:4200",
            "type": "xhr",
            "method": "GET",
            "url": "http://127.0.0.1:4200/sockjs-node/info?t=1515219313813",
            "apiKey": "qetBqF9Ja3v2oU8BRRzoLlWaKj0cFiN9"
        },
        {
            "id": 1231,
            "name": "ajax",
            "domain": "127.0.0.1:4200",
            "type": "xhr",
            "method": "GET",
            "url": "http://127.0.0.1:4200/sockjs-node/info?t=1515219310051",
            "apiKey": "qetBqF9Ja3v2oU8BRRzoLlWaKj0cFiN9"
        },
        {
            "id": 1230,
            "name": "ajax",
            "domain": "127.0.0.1:4200",
            "type": "xhr",
            "method": "GET",
            "url": "http://127.0.0.1:4200/sockjs-node/info?t=1515219300505",
            "apiKey": "qetBqF9Ja3v2oU8BRRzoLlWaKj0cFiN9"
        },
        {
            "id": 1229,
            "name": "ajax",
            "domain": "127.0.0.1:4200",
            "type": "xhr",
            "method": "GET",
            "url": "http://127.0.0.1:4200/sockjs-node/info?t=1515219297151",
            "apiKey": "qetBqF9Ja3v2oU8BRRzoLlWaKj0cFiN9"
        },
        {
            "id": 1228,
            "name": "ajax",
            "domain": "127.0.0.1:4200",
            "type": "xhr",
            "method": "GET",
            "url": "http://127.0.0.1:4200/sockjs-node/info?t=1515219292368",
            "apiKey": "qetBqF9Ja3v2oU8BRRzoLlWaKj0cFiN9"
        },
        {
            "id": 1227,
            "name": "ajax",
            "domain": "127.0.0.1:4200",
            "type": "xhr",
            "method": "GET",
            "url": "http://127.0.0.1:4200/sockjs-node/info?t=1515219288522",
            "apiKey": "qetBqF9Ja3v2oU8BRRzoLlWaKj0cFiN9"
        },
        {
            "id": 1226,
            "name": "ajax",
            "domain": "127.0.0.1:4200",
            "type": "xhr",
            "method": "GET",
            "url": "http://127.0.0.1:4200/sockjs-node/info?t=1515219284281",
            "apiKey": "qetBqF9Ja3v2oU8BRRzoLlWaKj0cFiN9"
        },
        {
            "id": 1225,
            "name": "ajax",
            "domain": "127.0.0.1:4200",
            "type": "xhr",
            "method": "GET",
            "url": "http://127.0.0.1:4200/sockjs-node/info?t=1515219279437",
            "apiKey": "qetBqF9Ja3v2oU8BRRzoLlWaKj0cFiN9"
        }
    ]
}