{"count":35,"totalPages":2,"numsPerPage":20,"currentPage":1,"data":[{"id":4373,"title":"开源中国","link":"http://www.oschina.net/","description":"","link_github":"","tag":null,"image_link":"","sort_order":9,"user_id":1,"catalog_id":611,"topic_id":2,"status_is":"Y","create_time":0},{"id":4414,"title":"知乎","link":"http://www.zhihu.com/","description":"","link_github":"","tag":null,"image_link":"","sort_order":0,"user_id":1,"catalog_id":611,"topic_id":2,"status_is":"Y","create_time":0},{"id":4415,"title":"csdn","link":"http://www.csdn.net/","description":null,"link_github":null,"tag":null,"image_link":null,"sort_order":0,"user_id":1,"catalog_id":611,"topic_id":2,"status_is":"Y","create_time":0},{"id":4416,"title":"博客园","link":"http://www.cnblogs.com/","description":null,"link_github":null,"tag":null,"image_link":null,"sort_order":0,"user_id":1,"catalog_id":611,"topic_id":2,"status_is":"Y","create_time":0},{"id":4417,"title":"W3Ctech","link":"http://www.w3ctech.com/","description":null,"link_github":null,"tag":null,"image_link":null,"sort_order":0,"user_id":1,"catalog_id":611,"topic_id":2,"status_is":"Y","create_time":0},{"id":4419,"title":"前端圈","link":"http://fequan.com/","description":null,"link_github":null,"tag":null,"image_link":null,"sort_order":0,"user_id":1,"catalog_id":611,"topic_id":2,"status_is":"Y","create_time":0},{"id":4422,"title":"W3Cplus","link":"http://www.w3cplus.com/","description":"","link_github":null,"tag":null,"image_link":"http://cdn2.w3cplus.com/cdn/farfuture/RF1xpRJEoklyAb7wAfpNNpU93FkYVXyUYdKenU7JOEY/mtime:1414079823/sites/all/themes/w3cplusV2/images/logo.png","sort_order":0,"user_id":1,"catalog_id":611,"topic_id":2,"status_is":"Y","create_time":0},{"id":4426,"title":"HTML5中国","link":"http://www.html5cn.org/","description":null,"link_github":null,"tag":null,"image_link":null,"sort_order":0,"user_id":1,"catalog_id":611,"topic_id":2,"status_is":"Y","create_time":0},{"id":4428,"title":"大前端","link":"http://www.daqianduan.com/","description":"","link_github":null,"tag":null,"image_link":"http://www.daqianduan.com/static/img/logo.png","sort_order":0,"user_id":1,"catalog_id":611,"topic_id":2,"status_is":"Y","create_time":0},{"id":4478,"title":"掘金","link":"http://gold.xitu.io/","description":"掘金是中国质量最高的技术分享社区，邀请稀土用户作为Co-Editor 来分享优质的技术干货，从前端到后端开发，从设计到产品，让每一个掘金用户都能挖掘到有价值的干货。","link_github":"","tag":"","image_link":"","sort_order":4,"user_id":1,"catalog_id":611,"topic_id":2,"status_is":"Y","create_time":0},{"id":4479,"title":"V2EX","link":"http://v2ex.com/","description":"","link_github":null,"tag":null,"image_link":null,"sort_order":6,"user_id":1,"catalog_id":611,"topic_id":2,"status_is":"Y","create_time":0},{"id":4480,"title":"果壳问答","link":"http://www.guokr.com/ask/pending/","description":"","link_github":null,"tag":null,"image_link":"http://static.guokr.com/apps/ask/images/eb5c6edd.5-logo.svg","sort_order":5,"user_id":1,"catalog_id":611,"topic_id":2,"status_is":"Y","create_time":0},{"id":4481,"title":"DIV.IO","link":"http://div.io/","description":"","link_github":null,"tag":null,"image_link":null,"sort_order":3,"user_id":1,"catalog_id":611,"topic_id":2,"status_is":"Y","create_time":0},{"id":4506,"title":"Web前端开发大系概览","link":"https://github.com/unruledboy/WebFrontEndStack","description":"","link_github":null,"tag":null,"image_link":null,"sort_order":1,"user_id":1,"catalog_id":611,"topic_id":2,"status_is":"Y","create_time":0},{"id":4522,"title":"Stack Overflow","link":"http://stackoverflow.com/","description":"一个与程序相关的IT技术问答网站。用户可以在网站免费提交问题，浏览问题，索引相关内容，在创建主页的时候使用简单的HTML。","link_github":null,"tag":null,"image_link":null,"sort_order":2,"user_id":1,"catalog_id":611,"topic_id":2,"status_is":"Y","create_time":0},{"id":4530,"title":"奇舞周刊","link":"http://old.75team.com/weekly/","description":"","link_github":null,"tag":null,"image_link":"","sort_order":0,"user_id":1,"catalog_id":621,"topic_id":2,"status_is":"Y","create_time":0},{"id":4531,"title":"WEB前端开发","link":"http://www.css88.com","description":"","link_github":"","tag":null,"image_link":"","sort_order":0,"user_id":1,"catalog_id":611,"topic_id":2,"status_is":"Y","create_time":0},{"id":4638,"title":"fami2u","link":"http://forums.fami2u.com/","description":"","link_github":null,"tag":null,"image_link":"","sort_order":0,"user_id":1,"catalog_id":611,"topic_id":2,"status_is":"Y","create_time":0},{"id":4647,"title":"全栈社区","link":"http://www.fullstackspace.com/","description":"中国最大的全栈开发者社区,致力于打造一个问题解答,技术文章分享,全栈人员创业的服务平台,让开发更容易,让创业更简单.","link_github":null,"tag":null,"image_link":"","sort_order":0,"user_id":1,"catalog_id":611,"topic_id":2,"status_is":"Y","create_time":0},{"id":4648,"title":"稀土区","link":"https://xituqu.com/","description":"专注开发设计资源分享，UI模板资源，ICONS资源，HTML模板资源等等.......","link_github":null,"tag":null,"image_link":"","sort_order":0,"user_id":1,"catalog_id":611,"topic_id":2,"status_is":"Y","create_time":0}]}
