{"count":68,"totalPages":4,"numsPerPage":20,"currentPage":1,"data":[{"id":4393,"title":"Damonare的个人博客","link":"http://damonare.github.io/","description":"如果时间可以停止，希望它就停止在现在。","link_github":"","tag":"","image_link":"","sort_order":1,"user_id":1,"catalog_id":621,"topic_id":3,"status_is":"Y","create_time":2016},{"id":4493,"title":"进步博客","link":"http://www.topcss.org/","description":"","link_github":"","tag":null,"image_link":"","sort_order":0,"user_id":1,"catalog_id":607,"topic_id":3,"status_is":"Y","create_time":0},{"id":4563,"title":"王员外","link":"http://lab.yuanwai.wang","description":"","link_github":null,"tag":null,"image_link":"","sort_order":0,"user_id":1,"catalog_id":607,"topic_id":3,"status_is":"Y","create_time":0},{"id":4580,"title":"阮一峰","link":"http://www.ruanyifeng.com/home.html","description":"","link_github":null,"tag":null,"image_link":"http://fenav.com/src/images/index/group9/1.jpg","sort_order":0,"user_id":1,"catalog_id":607,"topic_id":3,"status_is":"Y","create_time":0},{"id":4582,"title":"张鑫旭","link":"http://www.zhangxinxu.com/wordpress/","description":"成名多年的、高产的前端大湿，CSS猛人","link_github":null,"tag":null,"image_link":"","sort_order":0,"user_id":1,"catalog_id":607,"topic_id":3,"status_is":"Y","create_time":0},{"id":4696,"title":"玉伯","link":"https://github.com/lifesinger","description":"","link_github":null,"tag":null,"image_link":"","sort_order":0,"user_id":1,"catalog_id":607,"topic_id":3,"status_is":"Y","create_time":0},{"id":4697,"title":"廖雪峰","link":"http://www.liaoxuefeng.com/","description":"","link_github":null,"tag":null,"image_link":"","sort_order":0,"user_id":1,"catalog_id":607,"topic_id":3,"status_is":"Y","create_time":0},{"id":4698,"title":"勾三股四","link":"http://jiongks.name/","description":"","link_github":null,"tag":null,"image_link":"","sort_order":0,"user_id":1,"catalog_id":607,"topic_id":3,"status_is":"Y","create_time":0},{"id":4699,"title":"司徒正美","link":"http://www.cnblogs.com/rubylouvre/","description":"","link_github":null,"tag":null,"image_link":"http://fenav.com/src/images/index/group9/8.jpg","sort_order":0,"user_id":1,"catalog_id":607,"topic_id":3,"status_is":"Y","create_time":0},{"id":4700,"title":"JerryQu 的小站","link":"https://imququ.com/","description":"","link_github":null,"tag":null,"image_link":"","sort_order":0,"user_id":1,"catalog_id":607,"topic_id":3,"status_is":"Y","create_time":0},{"id":4701,"title":"前端小武","link":"https://xuexb.com/","description":"","link_github":null,"tag":null,"image_link":"","sort_order":0,"user_id":1,"catalog_id":607,"topic_id":3,"status_is":"Y","create_time":0},{"id":4702,"title":"赵鹏","link":"http://zhaopeng.me/","description":"","link_github":null,"tag":null,"image_link":"","sort_order":0,"user_id":1,"catalog_id":607,"topic_id":3,"status_is":"Y","create_time":0},{"id":7114,"title":"拴萝卜的棍子","link":"http://leeluolee.github.io/","description":"","link_github":null,"tag":null,"image_link":"","sort_order":0,"user_id":1,"catalog_id":607,"topic_id":3,"status_is":"Y","create_time":0},{"id":6968,"title":"brucewar","link":"http://www.brucewar.com/","description":"","link_github":null,"tag":null,"image_link":"","sort_order":0,"user_id":1,"catalog_id":607,"topic_id":3,"status_is":"Y","create_time":0},{"id":6966,"title":"葵中剑","link":"http://swordair.com/","description":"","link_github":null,"tag":null,"image_link":"","sort_order":0,"user_id":1,"catalog_id":607,"topic_id":3,"status_is":"Y","create_time":0},{"id":6967,"title":"css3China","link":"http://www.css3china.com/","description":"","link_github":null,"tag":null,"image_link":"","sort_order":0,"user_id":1,"catalog_id":607,"topic_id":3,"status_is":"Y","create_time":0},{"id":6964,"title":"武方博","link":"http://www.wufangbo.com/","description":"","link_github":null,"tag":null,"image_link":"","sort_order":0,"user_id":1,"catalog_id":607,"topic_id":3,"status_is":"Y","create_time":0},{"id":6965,"title":"潘魏增","link":"http://panweizeng.com/","description":"","link_github":null,"tag":null,"image_link":"","sort_order":0,"user_id":1,"catalog_id":607,"topic_id":3,"status_is":"Y","create_time":0},{"id":6963,"title":"彬go","link":"http://blog.bingo929.com/","description":"","link_github":null,"tag":null,"image_link":"","sort_order":0,"user_id":1,"catalog_id":607,"topic_id":3,"status_is":"Y","create_time":0},{"id":6960,"title":"三水清","link":"http://js8.in/","description":"","link_github":null,"tag":null,"image_link":"","sort_order":0,"user_id":1,"catalog_id":607,"topic_id":3,"status_is":"Y","create_time":0}]}
