{"count":44,"totalPages":3,"numsPerPage":20,"currentPage":1,"data":[{"id":6617,"title":"Analysys","link":"http://www.analysys.com.cn/","description":null,"link_github":null,"tag":null,"image_link":null,"sort_order":0,"user_id":1,"catalog_id":0,"topic_id":13,"status_is":"Y","create_time":0},{"id":6524,"title":"友盟","link":"http://www.umeng.com/","description":"","link_github":"","tag":null,"image_link":"","sort_order":0,"user_id":1,"catalog_id":621,"topic_id":13,"status_is":"Y","create_time":0},{"id":6521,"title":"百度统计","link":"http://tongji.baidu.com/web/welcome/login","description":"","link_github":"","tag":null,"image_link":"","sort_order":0,"user_id":2,"catalog_id":621,"topic_id":13,"status_is":"Y","create_time":0},{"id":6359,"title":"易观","link":"http://www.analysys.cn/","description":null,"link_github":null,"tag":null,"image_link":null,"sort_order":0,"user_id":1,"catalog_id":0,"topic_id":13,"status_is":"Y","create_time":0},{"id":6321,"title":"蒲公英","link":"https://www.pgyer.com/","description":"为开发者提供简洁迅速的内测程序分发服务","link_github":"","tag":null,"image_link":"","sort_order":0,"user_id":2,"catalog_id":621,"topic_id":13,"status_is":"Y","create_time":0},{"id":7322,"title":"乐收","link":"http://leshou.com/","description":null,"link_github":null,"tag":null,"image_link":null,"sort_order":0,"user_id":2,"catalog_id":639,"topic_id":13,"status_is":"Y","create_time":0},{"id":7323,"title":"百度收录","link":"http://zhanzhang.baidu.com/sitesubmit/index","description":null,"link_github":null,"tag":null,"image_link":null,"sort_order":0,"user_id":2,"catalog_id":639,"topic_id":13,"status_is":"Y","create_time":0},{"id":7324,"title":"DMOZ目录","link":"http://www.dmoz.org/public/suggest?cat=World/Chinese_Simplified/%E5%8F%82%E8%80%83/%E7%9F%A5%E8%AF%86%E7%AE%A1%E7%90%86","description":null,"link_github":null,"tag":null,"image_link":null,"sort_order":0,"user_id":2,"catalog_id":639,"topic_id":13,"status_is":"Y","create_time":0},{"id":7325,"title":"酷帝目录","link":"http://www.coodir.com/","description":null,"link_github":null,"tag":null,"image_link":null,"sort_order":0,"user_id":2,"catalog_id":639,"topic_id":13,"status_is":"Y","create_time":0},{"id":7326,"title":"第一摘","link":"http://www.dzhai.com/","description":null,"link_github":null,"tag":null,"image_link":null,"sort_order":0,"user_id":2,"catalog_id":639,"topic_id":13,"status_is":"Y","create_time":0},{"id":7327,"title":"智库网址","link":"http://dir.mbalib.com/","description":null,"link_github":null,"tag":null,"image_link":null,"sort_order":0,"user_id":2,"catalog_id":639,"topic_id":13,"status_is":"Y","create_time":0},{"id":7328,"title":"百度百科","link":"http://baike.baidu.com/","description":"","link_github":"","tag":null,"image_link":"","sort_order":0,"user_id":2,"catalog_id":639,"topic_id":13,"status_is":"Y","create_time":0},{"id":7329,"title":"soso百科","link":"http://baike.soso.com/","description":null,"link_github":null,"tag":null,"image_link":null,"sort_order":0,"user_id":2,"catalog_id":639,"topic_id":13,"status_is":"Y","create_time":0},{"id":7330,"title":"SEOwhy","link":"http://faq.seowhy.com/","description":null,"link_github":null,"tag":null,"image_link":null,"sort_order":0,"user_id":2,"catalog_id":640,"topic_id":13,"status_is":"Y","create_time":0},{"id":7331,"title":"研究中心","link":"http://bbs.moonseo.cn/","description":null,"link_github":null,"tag":null,"image_link":null,"sort_order":0,"user_id":2,"catalog_id":640,"topic_id":13,"status_is":"Y","create_time":0},{"id":7332,"title":"学SEO","link":"http://www.xueseo.com/","description":null,"link_github":null,"tag":null,"image_link":null,"sort_order":0,"user_id":2,"catalog_id":640,"topic_id":13,"status_is":"Y","create_time":0},{"id":7333,"title":"SEO查询","link":"http://seo.chinaz.com/","description":null,"link_github":null,"tag":null,"image_link":null,"sort_order":0,"user_id":2,"catalog_id":640,"topic_id":13,"status_is":"Y","create_time":0},{"id":7334,"title":"每日一贴","link":"http://www.seozac.com/","description":"","link_github":"","tag":null,"image_link":"","sort_order":0,"user_id":2,"catalog_id":640,"topic_id":13,"status_is":"Y","create_time":0},{"id":7335,"title":"点石互动","link":"http://www.dunsh.org/","description":null,"link_github":null,"tag":null,"image_link":null,"sort_order":0,"user_id":2,"catalog_id":640,"topic_id":13,"status_is":"Y","create_time":0},{"id":7336,"title":"优众网","link":"http://www.ourseo.net/","description":null,"link_github":null,"tag":null,"image_link":null,"sort_order":0,"user_id":2,"catalog_id":640,"topic_id":13,"status_is":"Y","create_time":0}]}
