{
  "count": 2832,
  "totalPages": 142,
  "numsPerPage": 20,
  "currentPage": 1,
  "data": [
    {
      "id": 1,
      "title": "angular-material-app",
      "link": "https://github.com/stbui/angular-material-app",
      "description": "基于最新Angular 5框架与Material 2技术的企业级通用管理系统快速开发框架",
      "link_github": "https://github.com/stbui/angular-material-app",
      "tag": "",
      "image_link": "",
      "sort_order": 1,
      "user_id": 1,
      "catalog_id": 621,
      "topic_id": 8,
      "status_is": "Y",
      "create_time": 0
    },
    {
      "id": 4357,
      "title": "WebStorm",
      "link": "http://www.jetbrains.com/webstorm/",
      "description": "jetbrains公司旗下一款JavaScript 开发工具。被广大中国JS开发者誉为“Web前端开发神器”、“最强大的HTML5编辑器”、“最智能的JavaScript IDE”等。",
      "link_github": "",
      "tag": "",
      "image_link": "",
      "sort_order": 1,
      "user_id": 1,
      "catalog_id": 621,
      "topic_id": 8,
      "status_is": "Y",
      "create_time": 0
    },
    {
      "id": 4358,
      "title": "thinkjs",
      "link": "https://thinkjs.org/",
      "description": null,
      "link_github": null,
      "tag": null,
      "image_link": null,
      "sort_order": 0,
      "user_id": 1,
      "catalog_id": 0,
      "topic_id": 25,
      "status_is": "Y",
      "create_time": 0
    },
    {
      "id": 4359,
      "title": "UIKit",
      "link": "http://getuikit.com/",
      "description": "UIKit使用的变量基于LESS,具有体积小、模块化、可轻松地自定义主题及响应式界面。",
      "link_github": null,
      "tag": null,
      "image_link": "",
      "sort_order": 0,
      "user_id": 1,
      "catalog_id": 609,
      "topic_id": 0,
      "status_is": "Y",
      "create_time": 0
    },
    {
      "id": 4360,
      "title": "Foundation",
      "link": "http://foundation.zurb.com/",
      "description": "迄今为止最好的响应式前端框架，更快、更轻、更多功能、更灵活、更强大！",
      "link_github": null,
      "tag": null,
      "image_link": "",
      "sort_order": 0,
      "user_id": 1,
      "catalog_id": 609,
      "topic_id": 0,
      "status_is": "Y",
      "create_time": 0
    },
    {
      "id": 4361,
      "title": "北京交通大学",
      "link": "http://mirror.bjtu.edu.cn/cn/",
      "description": "Beijing Jiaotong University free and open source software mirror",
      "link_github": "",
      "tag": "",
      "image_link": "",
      "sort_order": 0,
      "user_id": 1,
      "catalog_id": 609,
      "topic_id": 10,
      "status_is": "Y",
      "create_time": 0
    },
    {
      "id": 4362,
      "title": "Ember.js",
      "link": "http://emberjs.com/",
      "description": "一个用于创建 web 应用的 JavaScript MVC 框架，采用基于字符串的Handlebars模板，支持双向绑定、观察者模式、计算属性（依赖其他属性动态变化）、自动更新模板、路由控制、状态机等。",
      "link_github": null,
      "tag": null,
      "image_link": "",
      "sort_order": 0,
      "user_id": 1,
      "catalog_id": 608,
      "topic_id": 0,
      "status_is": "Y",
      "create_time": 0
    },
    {
      "id": 4363,
      "title": "Sublime Text",
      "link": "http://www.sublimetext.com/",
      "description": "一个代码编辑器（Sublime Text 2和3是收费软件，但可以无限期试用），也是HTML和散文先进的文本编辑器。",
      "link_github": "",
      "tag": null,
      "image_link": "",
      "sort_order": 0,
      "user_id": 1,
      "catalog_id": 621,
      "topic_id": 8,
      "status_is": "Y",
      "create_time": 0
    },
    {
      "id": 4364,
      "title": "华中科技大学",
      "link": "http://mirror.hust.edu.cn/",
      "description": "",
      "link_github": "",
      "tag": "",
      "image_link": "",
      "sort_order": 0,
      "user_id": 1,
      "catalog_id": 10,
      "topic_id": 10,
      "status_is": "Y",
      "create_time": 0
    },
    {
      "id": 4365,
      "title": "Notepad++",
      "link": "http://notepad-plus-plus.org/",
      "description": "Windows操作系统下的一套文本编辑器(软件版权许可证: GPL)，有完整的中文化接口及支持多国语言编写的功能。",
      "link_github": "",
      "tag": null,
      "image_link": "",
      "sort_order": 0,
      "user_id": 1,
      "catalog_id": 621,
      "topic_id": 8,
      "status_is": "Y",
      "create_time": 0
    },
    {
      "id": 4366,
      "title": "Cloud Hosting - Bitnami",
      "link": "https://bitnami.com/",
      "description": "",
      "link_github": "",
      "tag": "",
      "image_link": "",
      "sort_order": 0,
      "user_id": 1,
      "catalog_id": 621,
      "topic_id": 10,
      "status_is": "Y",
      "create_time": 0
    },
    {
      "id": 4367,
      "title": "Jsfiddle",
      "link": "http://jsfiddle.net/",
      "description": null,
      "link_github": null,
      "tag": null,
      "image_link": null,
      "sort_order": 0,
      "user_id": 1,
      "catalog_id": 0,
      "topic_id": 0,
      "status_is": "Y",
      "create_time": 0
    },
    {
      "id": 4368,
      "title": "CodeMirror",
      "link": "http://codemirror.net/",
      "description": null,
      "link_github": null,
      "tag": null,
      "image_link": null,
      "sort_order": 0,
      "user_id": 1,
      "catalog_id": 0,
      "topic_id": 0,
      "status_is": "Y",
      "create_time": 0
    },
    {
      "id": 4369,
      "title": "AngularJS",
      "link": "https://www.angularjs.org/",
      "description": "AngularJS 通过新的属性和表达式扩展了 HTML，可以构建一个单一页面应用程序。AngularJS有着诸多特性，最为核心的是：MVVM、模块化、自动化双向数据绑定、语义化标签、依赖注入等等。",
      "link_github": null,
      "tag": null,
      "image_link": "",
      "sort_order": 0,
      "user_id": 1,
      "catalog_id": 608,
      "topic_id": 0,
      "status_is": "Y",
      "create_time": 0
    },
    {
      "id": 4370,
      "title": "React官网",
      "link": "https://facebook.github.io/react/",
      "description": "React 起源于 Facebook 的内部项目，React 的设计思想极其独特，属于革命性创新，性能出众，代码逻辑却非常简单。是现在非长热门的框架。",
      "link_github": "",
      "tag": null,
      "image_link": "",
      "sort_order": 0,
      "user_id": 1,
      "catalog_id": 621,
      "topic_id": 23,
      "status_is": "Y",
      "create_time": 0
    },
    {
      "id": 4371,
      "title": "Backbone",
      "link": "http://backbonejs.org/",
      "description": "",
      "link_github": null,
      "tag": null,
      "image_link": "http://wwwhere.io/img/thumbs/backbone.jpg",
      "sort_order": 0,
      "user_id": 1,
      "catalog_id": 608,
      "topic_id": 0,
      "status_is": "Y",
      "create_time": 0
    },
    {
      "id": 4372,
      "title": "Pure",
      "link": "http://purecss.io/",
      "description": "小巧的响应式 CSS 库，Yahoo!出品",
      "link_github": null,
      "tag": null,
      "image_link": "",
      "sort_order": 0,
      "user_id": 1,
      "catalog_id": 610,
      "topic_id": 0,
      "status_is": "Y",
      "create_time": 0
    },
    {
      "id": 4373,
      "title": "开源中国",
      "link": "http://www.oschina.net/",
      "description": "",
      "link_github": "",
      "tag": null,
      "image_link": "",
      "sort_order": 9,
      "user_id": 1,
      "catalog_id": 611,
      "topic_id": 2,
      "status_is": "Y",
      "create_time": 0
    },
    {
      "id": 4374,
      "title": "Minibian",
      "link": "https://minibianpi.wordpress.com/",
      "description": "最小的 Raspbian (比 Jessie Lite还要轻量)",
      "link_github": "",
      "tag": "",
      "image_link": "",
      "sort_order": 0,
      "user_id": 1,
      "catalog_id": 652,
      "topic_id": 22,
      "status_is": "Y",
      "create_time": 0
    },
    {
      "id": 4375,
      "title": "Bower",
      "link": "https://bower.io/",
      "description": "是一个客户端技术的软件包管理器，它可用于搜索、安装和卸载如JavaScript、HTML、CSS之类的网络资源。",
      "link_github": "",
      "tag": null,
      "image_link": "",
      "sort_order": 6,
      "user_id": 1,
      "catalog_id": 621,
      "topic_id": 4,
      "status_is": "Y",
      "create_time": 0
    },
    {
      "id": 4376,
      "title": "NPM",
      "link": "https://www.npmjs.com/",
      "description": null,
      "link_github": null,
      "tag": null,
      "image_link": null,
      "sort_order": 0,
      "user_id": 1,
      "catalog_id": 0,
      "topic_id": 25,
      "status_is": "Y",
      "create_time": 0
    }
  ]
}
